<?xml version="1.0"?>
<font>
  <info face="Bungee" size="240" bold="0" italic="0" charset="" unicode="1" stretchH="100" smooth="1" aa="1" padding="0,0,0,0" spacing="2,2" outline="0"/>
  <common lineHeight="240" base="154" scaleW="256" scaleH="256" pages="1" packed="0" alphaChnl="0" redChnl="4" greenChnl="4" blueChnl="4"/>
  <pages>
    <page id="0" file="bungee_0.png" />
  </pages>
  <chars count="11">
    <char id="48" x="0" y="0" width="59" height="70" xoffset="5" yoffset="85" xadvance="68" page="0" chnl="15" />
    <char id="49" x="54" y="142" width="50" height="68" xoffset="4" yoffset="86" xadvance="57" page="0" chnl="15" />
    <char id="50" x="114" y="72" width="53" height="68" xoffset="3" yoffset="86" xadvance="60" page="0" chnl="15" />
    <char id="51" x="169" y="71" width="53" height="68" xoffset="4" yoffset="86" xadvance="60" page="0" chnl="15" />
    <char id="52" x="0" y="72" width="56" height="68" xoffset="5" yoffset="86" xadvance="67" page="0" chnl="15" />
    <char id="53" x="58" y="72" width="54" height="68" xoffset="4" yoffset="86" xadvance="61" page="0" chnl="15" />
    <char id="54" x="122" y="0" width="56" height="69" xoffset="5" yoffset="86" xadvance="65" page="0" chnl="15" />
    <char id="55" x="0" y="142" width="52" height="68" xoffset="3" yoffset="86" xadvance="59" page="0" chnl="15" />
    <char id="56" x="61" y="0" width="59" height="70" xoffset="4" yoffset="85" xadvance="67" page="0" chnl="15" />
    <char id="57" x="180" y="0" width="56" height="69" xoffset="4" yoffset="85" xadvance="65" page="0" chnl="15" />
    <char id="58" x="224" y="71" width="28" height="59" xoffset="4" yoffset="95" xadvance="36" page="0" chnl="15" />
  </chars>
  <kernings count="9">
    <kerning first="49" second="52" amount="-3" />
    <kerning first="51" second="52" amount="-1" />
    <kerning first="51" second="55" amount="-1" />
    <kerning first="53" second="55" amount="-1" />
    <kerning first="54" second="52" amount="-1" />
    <kerning first="54" second="55" amount="-1" />
    <kerning first="56" second="51" amount="-1" />
    <kerning first="56" second="52" amount="-1" />
    <kerning first="56" second="55" amount="-1" />
  </kernings>
</font>
